{
  "defaultSeverity": "error",
  "extends": [
    "tslint:recommended"
  ],
  "rules": {
    "curly": [
      true,
      "ignore-same-line"
    ],
    "interface-name": [
      true,
      "never-prefix"
    ],
    "no-empty-interface": false,
    "no-console": false,
    "no-string-literal": false,
    "quotemark": [
      true,
      "single"
    ]
  },
  "rulesDirectory": []
}
